## Elicit hint for getting the jade (fuzzed)
# SPDX-FileCopyrightText: Copyright Eric S. Raymond <esr@thyrsus.com>
# SPDX-License-Identifier: BSD-2-Clause
n
seed 1838473132
in
take lamp
xyzzy
on
take rod
e
take cage
w
w
w
drop rod
take bird
take rod
w
d
d
free bird
w
e
s
n
u
s
n
d
n
n
plugh
extin
plugh
on
s
s
sw
take axe
w
kill drago
y
take rug
e
e
u
d
n
n
off
plugh
drop rug
out
s
w
n
take appen
drop cage
s
s
n
in
take water
plugh
on
plove
ne
s
plove
s
s
u
w
wave rod
drop rod
west
w
w
w
s
sw
se
s
kill machi
s
s
kill ogre
n
s
w
n
n
n
nw
d
e
e
e
e
e
throw axe
take axe
n
n
n
off
plugh
plugh
on
s
s
u
n
n
d
bedqu
throw axe
take
slab
s
d
water plant
u
w
u
reser
H'CFL
n
n
nw
u
u
u
u
ne
sw
d
d
d
d
d
take water
s
s
s
s
d
s
d
water plant
u
drop appen
e
d
get oil
u
w
d
climb
w
n
oil door
drop bottl
n
take tride
w
d
se
n
w
drop tride
drop axe
drop lante
e
take emera
w
take lamp
take axe
take tride
nw
s
se
throw axe
e
w
ne
e
n
open
s
u
e
u
n
off
plugh
take key
take food
plugh
on
s
d
w
d
n
d
d
u
u
s
w
w
w
w
d
climb
w
get
n
take bottl
n
w
d
sw
u
toss egg
ne
barre
in
feed bear
unloc
take bear
fork
# next 4 lines are for coverage of LOC_LIMESTONE
d
fork
d
fork
ne
e
fork
w
w
sw
free bear
sw
sw
d
se
se
w
d
get oil
u
w
w
u
s
e
e
n
n
plugh
take
out
w
n
n
n
fill urn
light
rub urn
take amber
drop rug
drop emera
fly
fly
e
s
e
e
in
plugh
s
s
u
w
w
w
s
e
s
s
s
n
e
e
nw
se
n
d
w
d
y
y
