## LOC_NOCLIMB.short (fuzzed)
# SPDX-FileCopyrightText: Copyright Eric S. Raymond <esr@thyrsus.com>
# SPDX-License-Identifier: BSD-2-Clause
n
seed 1838473132
in
take lamp
xyzzy
on
take rod
e
take
west
west
west
drop rod
take bird
take
west
d
d
free bird
west
e
s
n
u
s
n
d
n
n
plugh
extin
plugh
on
s
s
sw
take
west
kill drago
y
take rug
e
e
u
d
n
n
off
plugh
drop rug
out
s
west
n
drop cage
s
s
n
in
take water
plugh
on
plove
e
s
plove
s
s
u
west
wave rod
drop rod
w
west
west
west
s
sw
se
s
kill machi
s
s
kill ogre
z
s
west
n
n
n
nw
d
e
e
e
e
e
throw axe
take axe
n
n
n
off
plugh
plugh
on
s
s
u
n
n
d
bedqu
throw axe
take
slab
s
d
water plant
u
west
u
reser
H'CFL
n
n
u
u
u
u
e
w
d
d
d
d
d
take water
s
s
s
s
d
s
d
water plant
u
e
d
get oil
u
west
d
climb
west
n
oil door
drop bottl
n
west
d
se
n
west
drop axe
drop lante
e
take emera
west
take lamp
take
nw
s
e
se
throw axe
e
west
d
ne
e
u
e
u
n
plugh
take key
take food
plugh
s
d
west
d
n
d
d
u
u
s
west
west
west
west
d
climb
west
n
take bottl
n
w
d
se
se
west
d
get oil
u
west
west
u
s
e
e
n
n
plugh
take
out
west
n
n
n
fill urn
light
rub urn
take amber
drop rug
drop emera
fly
e
